%YAML 1.1
%TAG !u! tag:unity3d.com,2011:
--- !u!1001 &223789120497897473
PrefabInstance:
  m_ObjectHideFlags: 0
  serializedVersion: 2
  m_Modification:
    m_TransformParent: {fileID: 0}
    m_Modifications:
    - target: {fileID: 5178513563760596232, guid: 3d602609f3097784c9845a88b8b114cd, type: 3}
      propertyPath: m_Sprite
      value: 
      objectReference: {fileID: 2321443516443189743, guid: 337ae6236d469264da24c4f429f4e2f2, type: 3}
    - target: {fileID: 5178513563926732472, guid: 3d602609f3097784c9845a88b8b114cd, type: 3}
      propertyPath: m_Name
      value: NessieF
      objectReference: {fileID: 0}
    - target: {fileID: 5178513563926732474, guid: 3d602609f3097784c9845a88b8b114cd, type: 3}
      propertyPath: m_RootOrder
      value: 0
      objectReference: {fileID: 0}
    - target: {fileID: 5178513563926732474, guid: 3d602609f3097784c9845a88b8b114cd, type: 3}
      propertyPath: m_LocalPosition.x
      value: -7.63
      objectReference: {fileID: 0}
    - target: {fileID: 5178513563926732474, guid: 3d602609f3097784c9845a88b8b114cd, type: 3}
      propertyPath: m_LocalPosition.y
      value: -12.35
      objectReference: {fileID: 0}
    - target: {fileID: 5178513563926732474, guid: 3d602609f3097784c9845a88b8b114cd, type: 3}
      propertyPath: m_LocalPosition.z
      value: 0
      objectReference: {fileID: 0}
    - target: {fileID: 5178513563926732474, guid: 3d602609f3097784c9845a88b8b114cd, type: 3}
      propertyPath: m_LocalRotation.w
      value: 1
      objectReference: {fileID: 0}
    - target: {fileID: 5178513563926732474, guid: 3d602609f3097784c9845a88b8b114cd, type: 3}
      propertyPath: m_LocalRotation.x
      value: -0
      objectReference: {fileID: 0}
    - target: {fileID: 5178513563926732474, guid: 3d602609f3097784c9845a88b8b114cd, type: 3}
      propertyPath: m_LocalRotation.y
      value: -0
      objectReference: {fileID: 0}
    - target: {fileID: 5178513563926732474, guid: 3d602609f3097784c9845a88b8b114cd, type: 3}
      propertyPath: m_LocalRotation.z
      value: -0
      objectReference: {fileID: 0}
    - target: {fileID: 5178513563926732474, guid: 3d602609f3097784c9845a88b8b114cd, type: 3}
      propertyPath: m_LocalEulerAnglesHint.x
      value: 0
      objectReference: {fileID: 0}
    - target: {fileID: 5178513563926732474, guid: 3d602609f3097784c9845a88b8b114cd, type: 3}
      propertyPath: m_LocalEulerAnglesHint.y
      value: 0
      objectReference: {fileID: 0}
    - target: {fileID: 5178513563926732474, guid: 3d602609f3097784c9845a88b8b114cd, type: 3}
      propertyPath: m_LocalEulerAnglesHint.z
      value: 0
      objectReference: {fileID: 0}
    m_RemovedComponents: []
  m_SourcePrefab: {fileID: 100100000, guid: 3d602609f3097784c9845a88b8b114cd, type: 3}
