%YAML 1.1
%TAG !u! tag:unity3d.com,2011:
--- !u!50 &6936775199594101661
Rigidbody2D:
  serializedVersion: 4
  m_ObjectHideFlags: 0
  m_CorrespondingSourceObject: {fileID: 0}
  m_PrefabInstance: {fileID: 0}
  m_PrefabAsset: {fileID: 0}
  m_GameObject: {fileID: 5832968954461748910}
  m_BodyType: 1
  m_Simulated: 1
  m_UseFullKinematicContacts: 0
  m_UseAutoMass: 0
  m_Mass: 1
  m_LinearDrag: 0
  m_AngularDrag: 0.05
  m_GravityScale: 1
  m_Material: {fileID: 0}
  m_Interpolate: 0
  m_SleepingMode: 1
  m_CollisionDetection: 0
  m_Constraints: 0
--- !u!114 &-5101435645814085196
MonoBehaviour:
  m_ObjectHideFlags: 0
  m_CorrespondingSourceObject: {fileID: 0}
  m_PrefabInstance: {fileID: 0}
  m_PrefabAsset: {fileID: 0}
  m_GameObject: {fileID: 5832968954461748910}
  m_Enabled: 1
  m_EditorHideFlags: 0
  m_Script: {fileID: 11500000, guid: 380cb18c2df4c234eb0fa1d213807e8c, type: 3}
  m_Name: 
  m_EditorClassIdentifier: 
--- !u!1001 &1670581450257719318
PrefabInstance:
  m_ObjectHideFlags: 0
  serializedVersion: 2
  m_Modification:
    m_TransformParent: {fileID: 0}
    m_Modifications:
    - target: {fileID: 5178513563760596232, guid: 3d602609f3097784c9845a88b8b114cd, type: 3}
      propertyPath: m_Sprite
      value: 
      objectReference: {fileID: 3458717900195361341, guid: 337ae6236d469264da24c4f429f4e2f2, type: 3}
    - target: {fileID: 5178513563926732468, guid: 3d602609f3097784c9845a88b8b114cd, type: 3}
      propertyPath: squeak
      value: 
      objectReference: {fileID: 1307607100415437499}
    - target: {fileID: 5178513563926732469, guid: 3d602609f3097784c9845a88b8b114cd, type: 3}
      propertyPath: m_IsTrigger
      value: 1
      objectReference: {fileID: 0}
    - target: {fileID: 5178513563926732472, guid: 3d602609f3097784c9845a88b8b114cd, type: 3}
      propertyPath: m_Name
      value: NessieD
      objectReference: {fileID: 0}
    - target: {fileID: 5178513563926732474, guid: 3d602609f3097784c9845a88b8b114cd, type: 3}
      propertyPath: m_RootOrder
      value: 0
      objectReference: {fileID: 0}
    - target: {fileID: 5178513563926732474, guid: 3d602609f3097784c9845a88b8b114cd, type: 3}
      propertyPath: m_LocalScale.x
      value: 0.92
      objectReference: {fileID: 0}
    - target: {fileID: 5178513563926732474, guid: 3d602609f3097784c9845a88b8b114cd, type: 3}
      propertyPath: m_LocalScale.y
      value: 0.92
      objectReference: {fileID: 0}
    - target: {fileID: 5178513563926732474, guid: 3d602609f3097784c9845a88b8b114cd, type: 3}
      propertyPath: m_LocalScale.z
      value: 0.92
      objectReference: {fileID: 0}
    - target: {fileID: 5178513563926732474, guid: 3d602609f3097784c9845a88b8b114cd, type: 3}
      propertyPath: m_LocalPosition.x
      value: -11.76
      objectReference: {fileID: 0}
    - target: {fileID: 5178513563926732474, guid: 3d602609f3097784c9845a88b8b114cd, type: 3}
      propertyPath: m_LocalPosition.y
      value: -8.91
      objectReference: {fileID: 0}
    - target: {fileID: 5178513563926732474, guid: 3d602609f3097784c9845a88b8b114cd, type: 3}
      propertyPath: m_LocalPosition.z
      value: 0
      objectReference: {fileID: 0}
    - target: {fileID: 5178513563926732474, guid: 3d602609f3097784c9845a88b8b114cd, type: 3}
      propertyPath: m_LocalRotation.w
      value: 1
      objectReference: {fileID: 0}
    - target: {fileID: 5178513563926732474, guid: 3d602609f3097784c9845a88b8b114cd, type: 3}
      propertyPath: m_LocalRotation.x
      value: -0
      objectReference: {fileID: 0}
    - target: {fileID: 5178513563926732474, guid: 3d602609f3097784c9845a88b8b114cd, type: 3}
      propertyPath: m_LocalRotation.y
      value: -0
      objectReference: {fileID: 0}
    - target: {fileID: 5178513563926732474, guid: 3d602609f3097784c9845a88b8b114cd, type: 3}
      propertyPath: m_LocalRotation.z
      value: -0
      objectReference: {fileID: 0}
    - target: {fileID: 5178513563926732474, guid: 3d602609f3097784c9845a88b8b114cd, type: 3}
      propertyPath: m_LocalEulerAnglesHint.x
      value: 0
      objectReference: {fileID: 0}
    - target: {fileID: 5178513563926732474, guid: 3d602609f3097784c9845a88b8b114cd, type: 3}
      propertyPath: m_LocalEulerAnglesHint.y
      value: 0
      objectReference: {fileID: 0}
    - target: {fileID: 5178513563926732474, guid: 3d602609f3097784c9845a88b8b114cd, type: 3}
      propertyPath: m_LocalEulerAnglesHint.z
      value: 0
      objectReference: {fileID: 0}
    - target: {fileID: 5178513563926732475, guid: 3d602609f3097784c9845a88b8b114cd, type: 3}
      propertyPath: m_ApplyRootMotion
      value: 0
      objectReference: {fileID: 0}
    m_RemovedComponents: []
  m_SourcePrefab: {fileID: 100100000, guid: 3d602609f3097784c9845a88b8b114cd, type: 3}
--- !u!1 &5832968954461748910 stripped
GameObject:
  m_CorrespondingSourceObject: {fileID: 5178513563926732472, guid: 3d602609f3097784c9845a88b8b114cd, type: 3}
  m_PrefabInstance: {fileID: 1670581450257719318}
  m_PrefabAsset: {fileID: 0}
--- !u!82 &1307607100415437499 stripped
AudioSource:
  m_CorrespondingSourceObject: {fileID: 363266824231291565, guid: 3d602609f3097784c9845a88b8b114cd, type: 3}
  m_PrefabInstance: {fileID: 1670581450257719318}
  m_PrefabAsset: {fileID: 0}
